<svg width="213" height="540" viewBox="0 0 213 540" fill="none" xmlns="http://www.w3.org/2000/svg">
<path d="M-25.3048 411.9C-23.6251 396.783 -10.6911 366.295 27.607 365.287C75.4797 364.028 128.392 390.484 122.092 453.474C115.793 516.464 70.4404 549.219 15.009 535.362C-40.4225 521.504 -45.4617 461.033 -44.2019 444.655" stroke="white"/>
<path d="M142.446 455.395C138.782 456.71 130.318 457.166 125.778 448.475C120.103 437.611 120.233 422.471 135.422 416.833C150.612 411.195 163.244 417.937 166.294 432.239C169.344 446.541 156.009 454.502 152.102 456.055" stroke="white"/>
<path d="M88.0757 350.023C89.8922 347.541 95.2293 343.498 102.046 347.177C110.566 351.775 117.18 361.741 109.734 372.151C102.288 382.561 91.0384 383.738 82.7146 375.728C74.3908 367.718 79.5952 356.608 81.4648 353.863" stroke="white"/>
<path d="M41.358 11.6031C43.1744 9.12159 48.5115 5.0783 55.3279 8.75725C63.8483 13.3559 70.4621 23.3214 63.0161 33.7315C55.5701 44.1416 44.3207 45.3188 35.9969 37.3085C27.673 29.2982 32.8774 18.1884 34.7471 15.4437" stroke="white"/>
<path d="M78.5216 5.98889C80.4491 5.86458 84.5474 6.80762 85.5204 11.5742C86.7367 17.5325 84.5988 24.7339 76.583 25.3393C68.5671 25.9448 63.4683 20.9981 63.9752 13.7603C64.4821 6.52254 71.9321 4.55504 74.0078 4.35036" stroke="white"/>
<path d="M34.4083 175.857C31.7457 171.702 28.7832 161.374 38.2346 153.301C50.0489 143.21 68.792 139.08 80.0629 156.249C91.3338 173.419 86.5845 190.937 69.778 198.759C52.9715 206.58 39.3559 192.361 36.3302 187.974" stroke="white"/>
<path d="M97.9146 227.377C91.5235 225.178 80.2758 205.227 83.5641 188.525C87.6745 167.646 104.291 147.279 130.989 156.137C157.686 164.995 164.468 184.281 156.076 210.53C148.344 234.712 119.837 240.766 97.9146 227.375" stroke="white"/>
<path d="M63.4409 142.802C52.8608 139.162 34.2406 106.133 39.6843 78.4825C46.4889 43.9195 73.9976 10.2026 118.194 24.8668C162.39 39.531 173.618 71.4569 159.725 114.911C146.925 154.944 99.7326 164.966 63.441 142.798" stroke="white"/>
<path d="M118.946 409.575C114.092 407.905 105.549 392.752 108.047 380.067C111.169 364.21 123.789 348.741 144.065 355.469C164.341 362.196 169.492 376.843 163.119 396.779C157.247 415.145 135.596 419.743 118.946 409.573" stroke="white"/>
<path d="M143.289 241.694C132.065 232.456 112.215 230.682 97.6939 245.022C93.2593 249.401 82.3289 271.683 97.3761 287.29C113.709 304.231 130.954 306.944 148.426 290.463C165.899 273.981 157.319 253.24 143.289 241.694Z" stroke="white"/>
<path d="M79.4625 266.829C60.711 251.396 27.5481 248.432 3.28866 272.389C-4.12004 279.705 -22.381 316.931 2.75784 343.006C30.045 371.308 58.8547 375.841 88.0455 348.306C117.236 320.771 102.902 286.119 79.4625 266.829Z" stroke="white"/>
<path d="M170.229 223.086C164.773 218.596 155.125 217.734 148.067 224.704C145.911 226.832 140.598 237.663 147.912 245.249C155.851 253.484 164.233 254.802 172.726 246.791C181.219 238.78 177.049 228.698 170.229 223.086Z" stroke="white"/>
<path d="M88.2825 219.83C81.1909 213.994 68.6493 212.873 59.4747 221.933C56.6729 224.7 49.7669 238.778 59.274 248.639C69.5936 259.342 80.4889 261.056 91.5284 250.643C102.568 240.23 97.1469 227.125 88.2825 219.83Z" stroke="white"/>
<path d="M159.804 408.376C157.837 418.368 168.234 429.173 176.21 431.617C180.384 432.897 196.361 435.11 203.18 421.54C210 407.97 204.143 394.301 188.173 389.003C172.203 383.704 162.263 395.887 159.804 408.376Z" stroke="white" stroke-width="3"/>
<path d="M175.453 197.194C164.146 191.026 157.08 183.94 159.047 173.948C161.506 161.459 171.446 149.276 187.416 154.574C203.386 159.873 209.242 173.542 202.423 187.112C195.604 200.682 179.627 198.47 175.453 197.19" stroke="white" stroke-width="3"/>
<path d="M175.453 69.8861C164.146 63.7186 157.08 56.632 159.047 46.6406C161.506 34.1514 171.446 21.9679 187.416 27.2668C203.386 32.5656 209.242 46.234 202.423 59.804C195.604 73.374 179.627 71.1623 175.453 69.8826" stroke="white" stroke-width="3"/>
<path d="M159.047 268.91C157.08 278.901 164.853 288.902 175.453 292.152C179.627 293.431 195.604 295.643 202.423 282.073C209.243 268.503 203.387 254.835 187.416 249.536C171.446 244.237 161.506 256.421 159.047 268.91Z" stroke="white" stroke-width="3"/>
</svg>
