<?xml version="1.0" encoding="utf-8"?>
<!-- Generator: Adobe Illustrator 25.0.0, SVG Export Plug-In . SVG Version: 6.00 Build 0)  -->
<svg version="1.1" id="Ebene_1" xmlns="http://www.w3.org/2000/svg" xmlns:xlink="http://www.w3.org/1999/xlink" x="0px" y="0px"
	 viewBox="0 0 726 589.4" style="enable-background:new 0 0 726 589.4;" xml:space="preserve">
<style type="text/css">
	.st0{fill:none;stroke:#C6C6C6;stroke-width:3;stroke-miterlimit:10;}
</style>
<g id="Group_91" transform="matrix(0.998, -0.07, 0.07, 0.998, 2965.265, -17646.467)">
	<path id="Path_266" class="st0" d="M-3510.6,17627.2c12.7,18.5,41,62.4,12.7,134s-116.7,121.7-190.7,86.8
		c-74-34.9-132.9-105.1-104.1-197.4s134.2-118.7,204.8-79.1c17.9,10.1,30.9,17.4,40.8,23.2
		C-3519.1,17611.2-3520.1,17613.4-3510.6,17627.2z"/>
	<path id="Path_267" class="st0" d="M-3765.8,17791.5c15.9,21.1,27.7,56.6,0,94.7s-84.7,43.5-121.5,20.6s-54.4-51.4-41.7-103.5
		s61.1-60.3,91.9-57.2S-3781.6,17770.4-3765.8,17791.5z"/>
	<path id="Path_268" class="st0" d="M-3792.1,17616c5.3,100.7-69,138.4-113.3,137.7s-117.3-30.3-125.7-104.2s41.6-133.6,96.8-139.2
		S-3797.4,17515.2-3792.1,17616z"/>
	<path id="Path_269" class="st0" d="M-3943.1,17770c8.7,20.8,16,32.3,5.7,77.8s-65.5,71.6-110.8,59.2s-76.9-45.3-63.2-109.7
		s60.4-83.4,98.1-75.8S-3951.8,17749.2-3943.1,17770z"/>
	<path id="Path_270" class="st0" d="M-3891.9,17955.7c12.8-27.8,2.4-53.9-23.5-67.3s-66.2,7-79.1,32s4.7,55.3,33.6,61.2
		S-3904.7,17983.5-3891.9,17955.7z"/>
	<path id="Path_275" class="st0" d="M-4096.5,17624.1c47,2.2,78.2-27.7,82.4-72.2s-48.1-90.3-91.2-94.3c-43.1-4-76.2,38.6-67.8,83.2
		C-4164.7,17585.3-4143.5,17621.9-4096.5,17624.1z"/>
	<path id="Path_271" class="st0" d="M-4032.7,17697.5c12.8-27.8,2.4-53.9-23.5-67.3s-64.3-1.7-71.1,24.9s-4,56.4,25.6,68.3
		C-4072.1,17735.2-4045.5,17725.3-4032.7,17697.5z"/>
	<path id="Path_272" class="st0" d="M-3682.1,17452c0,0,26.5,78.3-20.9,106.7c-47.4,28.4-98.4,21.3-117.2-27.7
		s-10.5-99.4,40.8-114.3"/>
	<path id="Path_276" class="st0" d="M-4207.3,17623c0,0,13.9-28.6,42.9-23.5c28.9,5.1,46.9,25.8,37.4,52s-33.6,49.9-72.1,20.9"/>
	<path id="Path_273" class="st0" d="M-3717,17964.2c-30.1,6.9-70.5-28.4-53.2-65.1s63.5-66.3,106.5-36.2c43,30.1,36.4,79.2,0,95.7"
		/>
	<path id="Path_274" class="st0" d="M-4073.4,17967.7c-9-18.7,3-49.9,18.8-55.9s50.1,2.4,54.9,32.8c4.8,30.4-23.7,46.6-45.8,43.9"/>
</g>
</svg>
