<?xml version="1.0" encoding="utf-8"?>
<!-- Generator: Adobe Illustrator 25.0.0, SVG Export Plug-In . SVG Version: 6.00 Build 0)  -->
<svg version="1.1" id="Ebene_1" xmlns="http://www.w3.org/2000/svg" xmlns:xlink="http://www.w3.org/1999/xlink" x="0px" y="0px"
	 viewBox="0 0 212.3 200.1" style="enable-background:new 0 0 212.3 200.1;" xml:space="preserve">
<style type="text/css">
	.st0{fill:none;stroke:#FFFFFF;}
	.st1{fill:none;stroke:#FFFFFF;stroke-width:3;}
</style>
<path class="st0" d="M51.6,36.4c3.5-3.4,13-8.4,22.7-0.7c12.2,9.5,19.9,27,5.4,41.3c-14.5,14.4-32.5,13.2-43.5-1.6
	s0.2-30.9,3.9-34.7"/>
<path class="st0" d="M157.7,4.2c3.1-0.2,9.7,1.3,11.3,8.9c2,9.6-1.4,21.2-14.3,22.2c-12.9,1-21.1-6.9-20.3-18.6S147.1,2,150.4,1.6"
	/>
<path class="st0" d="M21.7,188.5c-8.8-3-24.3-30.6-19.8-53.6C7.6,106.1,30.5,78,67.3,90.2c36.8,12.2,46.2,38.8,34.6,75.1
	C91.3,198.6,51.9,207,21.7,188.5"/>
<path class="st0" d="M102.6,114c-7.3-2.5-20-25.1-16.3-44.1C91,46.2,109.8,23,140.1,33.1c30.3,10.1,38,31.9,28.5,61.7
	C159.8,122.3,127.5,129.2,102.6,114"/>
<path class="st1" d="M165,38.8c-2,10,8.4,20.8,16.4,23.2c4.2,1.3,20.2,3.5,27-10.1c6.8-13.6,1-27.2-15-32.5
	C177.4,14.1,167.5,26.3,165,38.8z"/>
</svg>
